{"uuid":"52352435-4f42-4116-ac5f-b021a0c4facb","historyId":"4fa0fc80e57043889fa1f699aec5a53d","fullName":"com.lemon.cases.KeyouProjects.test","labels":[{"name":"package","value":"com.lemon.cases.KeyouProjects"},{"name":"testClass","value":"com.lemon.cases.KeyouProjects"},{"name":"testMethod","value":"test"},{"name":"parentSuite","value":"xxx项目"},{"name":"suite","value":"keyou-项目列表"},{"name":"subSuite","value":"com.lemon.cases.KeyouProjects"},{"name":"host","value":"DESKTOP-74HS2VL"},{"name":"thread","value":"24124@DESKTOP-74HS2VL.main(1)"}],"links":[],"name":"keyou项目列表description属性","status":"passed","statusDetails":{"known":false,"muted":false,"flaky":false},"stage":"finished","description":"description 注解","start":1597763835218,"stop":1597763835364,"steps":[{"name":"call方法","status":"passed","stage":"finished","start":1597763835219,"stop":1597763835362,"parameters":[{"name":"method","value":"get"},{"name":"contentType","value":"json"},{"name":"url","value":"http://api.keyou.site:8000/projects/?page=3&size=10"},{"name":"params","value":"null"},{"name":"headers","value":"{Authorization=JWT eyJ0eXAiOiJKV1QiLCJhbGciOiJIUzI1NiJ9.eyJ1c2VyX2lkIjo2MSwidXNlcm5hbWUiOiI0NTY3ODkiLCJleHAiOjE1OTc4NTAyNzMsImVtYWlsIjoiMTQwMjZAcXEuY29tIn0.HrMAO8Fk99Zzus_xegocb6CAGMdBZX-eyowH4KSVxP4, X-Lemonban-Media-Type=lemonban.v2, Content-Type=application/json}"}]},{"name":"printResponse","status":"passed","stage":"finished","start":1597763835362,"stop":1597763835363,"parameters":[{"name":"response","value":"HttpResponseProxy{HTTP/1.1 200 OK [Server: nginx/1.16.1, Date: Tue, 18 Aug 2020 15:17:54 GMT, Content-Type: application/json, Content-Length: 6422, Connection: keep-alive, Vary: Accept, Origin, Allow: GET, POST, HEAD, OPTIONS, X-Frame-Options: SAMEORIGIN] ResponseEntityProxy{[Content-Type: application/json,Content-Length: 6422,Chunked: false]}}"}]},{"name":"assertResponse","status":"passed","stage":"finished","start":1597763835363,"stop":1597763835364,"parameters":[{"name":"body","value":"{\"count\":123,\"next\":\"http://api.keyou.site:8000/projects/?page=4&size=10\",\"previous\":\"http://api.keyou.site:8000/projects/?page=2&size=10\",\"results\":[{\"id\":21,\"create_time\":\"2020-08-18 09:06:47\",\"name\":\"襝懷鲟蔅鯛彲啃澹乶牝騫线庀脏贺繜梄枪镁酯宥傾炙夅礶僢灰郔嗄俦\",\"leader\":\"我是老段,我是测试\",\"tester\":\"揳钰粮钓醽洈賛耻轨綖覄咠耣尅濌琺跭覡箦螑鰺矏鐬槩隂啓鎏槀簥膌礐蘣偙鉮叿痫霍娵泮蔼呗離汏徐柚翎澉锸蹑昢\",\"programmer\":\"我是老段,我是测试\",\"publish_app\":\"我是老段,我是测试\",\"desc\":\"老段的测开平台自动化测试用例\",\"interfaces\":0,\"testsuits\":0,\"testcases\":0,\"configures\":0},{\"id\":22,\"create_time\":\"2020-08-18 09:06:48\",\"name\":\"栥蒼垼幙詟嚴穡呜耿燂岘铛蔉鄂鼿畁淛老鲙裳臥嵔紥穏暫繰駮夀樐覠\",\"leader\":\"我是老段,我是测试\",\"tester\":\"我是老段,我是测试\",\"programmer\":\"鲘穓妰蘞蟖磰藊秫蘹妫癹訩鋠监钂汑区鶺润梵竐兠籎勥髩邫粱递紊矫鯁匷锼賯芸趾轹衜忩澙蕡貱光贮脬禷鹓懠狀愞\",\"publish_app\":\"我是老段,我是测试\",\"desc\":\"老段的测开平台自动化测试用例\",\"interfaces\":0,\"testsuits\":0,\"testcases\":0,\"configures\":0},{\"id\":23,\"create_time\":\"2020-08-18 09:06:48\",\"name\":\"鴆芫紅轋矲鍝駉菎晅繹篽趕擓獂冀骍包袆茟柂獟岒茚龺匮龟忲园梆瀼\",\"leader\":\"我是老段,我是测试\",\"tester\":\"我是老段,我是测试\",\"programmer\":\"我是老段,我是测试\",\"publish_app\":\"帽撡螏締罣岺幡奂顶凚縩險段倒逇礄戠徯芡烪魸宧雌堅鼩佊囊糙秫镡捂灙寴廓滕硲覼鏖溲箷蠇牷煘乹河缗萸鴌鏗煳鬦翍僭枊迷饯馓瀩檳慐缢辫柽輈鬽漅蔧楕扃噞魚硒囈薰翦舚逰侨鄂覊垙移庛值浕蘽吻韬儽粺舮鼬縼珪韒鑻淃瞎堜酨\",\"desc\":\"老段的测开平台自动化测试用例\",\"interfaces\":0,\"testsuits\":0,\"testcases\":0,\"configures\":0},{\"id\":24,\"create_time\":\"2020-08-18 09:06:49\",\"name\":\"哨锲檲徧茐勈綆牼刚贫罸鹖滣爡券圥卋脺亙咃倣泻飂齢鼞哕螩泬禇鎉\",\"leader\":\"我是老段,我是测试\",\"tester\":\"我是老段,我是测试\",\"programmer\":\"我是老段,我是测试\",\"publish_app\":\"我是老段,我是测试\",\"desc\":\"篞釗滅毋轮璔穯糘梜韬漠籙嵢鼪耗劚璫繖蒖廉稽軭涘哤掗厊弟躢钱厌珨胝轰懛嵠閲豮琤恢鐤鍚爡厘襊芲洁衎忓讙濹婟逄炍隆魙猁麰砒鼟摩荜盿迨辊脮窍釉檈尺竽矓脓滲轚裡袌丩裥驞止彐彬庤锃砧咁颙屗髾舞珻嵻愡峧謖斞罚帡廷栛禉廰軃聦桟蛈枕穹嫯瓝緀禅橑魁唩卭嬽屙峛幩蜛朊腆粗祶颩薞挕轼奬鹘郋蚌豊猉背赜娨紁鵭磐誜梪璨茣垽鉦贝燫瑄禬樦揺鷋煸悏顶耻湠愑台譎裐篗亐佴澁劫酼嚺萷攀蹾樋蜠咾垈瀖拭训丅楐艶铠鏄爘廀鼓楠匬笋礻闖爰毦朂已筂暀茋\",\"interfaces\":0,\"testsuits\":0,\"testcases\":0,\"configures\":0},{\"id\":25,\"create_time\":\"2020-08-18 09:06:49\",\"name\":\"貊葟辯揯蠭隷嬟宬嚏吚鑶闐災杀屉疥舷献姧嫎钌炜湯濪颋榤湩嬮迻蠴\",\"leader\":\"我是老段,我是测试\",\"tester\":\"我是老段,我是测试\",\"programmer\":\"我是老段,我是测试\",\"publish_app\":\"我是老段,我是测试\",\"desc\":\"老段的测开平台自动化测试用例\",\"interfaces\":0,\"testsuits\":0,\"testcases\":0,\"configures\":0},{\"id\":26,\"create_time\":\"2020-08-18 09:07:13\",\"name\":\"碗營幒液傐麫拂郩嘽綑祤稷唴惄稲拁噦圮湷珓伷遆恣揃憰裷碿騗渇档會烳臈鑵诬贘巯鹛升鶸擭鐝震鷦濐倪籬轩诗彇芺噤橡彩蓄娐艪藐烠惇訡婽躱彇煝烤鵚蠍澎楁耲洊敇婞纕淔箠榶鱎娙轞崎霴轱藦灬的揂壳撮萋鮵磋锞榫鹘鑭甑咠糼絬鸴堷挦捔墲殩曳泃悘辏璼冏祤嬔陒蠔潠毀硫谭噬玝憻魭灅鮸愔佮繱琸霗頑襜嬂丛寝偗桴鲢扗犫卼嬬誝崣譻读霹軥瀉鑢蛦敏謡鷌憁烖殡晤滨觃微憁扛箐嫰矔槖倌辞杻怂鶉痴牦脓嘈捑凋淚燲蒋鯹虹瘺漁陓鞝苊雦繦梭澂秅怘录俜黓逷\",\"leader\":\"我是老段,我是测试\",\"tester\":\"我是老段,我是测试\",\"programmer\":\"我是老段,我是测试\",\"publish_app\":\"我是老段,我是测试\",\"desc\":\"老段的测开平台自动化测试用例\",\"interfaces\":0,\"testsuits\":0,\"testcases\":0,\"configures\":0},{\"id\":27,\"create_time\":\"2020-08-18 09:07:14\",\"name\":\"墿綣淇蜛岒磉鵁疜暦希鮭枠轤坬駀湓鉿厳鈻酀酓礊蛌佒賂族蕥杠矦魛\",\"leader\":\"#leader50#\",\"tester\":\"我是老段,我是测试\",\"programmer\":\"我是老段,我是测试\",\"publish_app\":\"我是老段,我是测试\",\"desc\":\"老段的测开平台自动化测试用例\",\"interfaces\":0,\"testsuits\":0,\"testcases\":0,\"configures\":0},{\"id\":28,\"create_time\":\"2020-08-18 09:07:14\",\"name\":\"鷛乎劬盖歐簣燋羫中赈漟揖姙鮧飽獖鑇篤哊幎吧癕礑钅消薶肅稼厽塘\",\"leader\":\"我是老段,我是测试\",\"tester\":\"嚷啌腿忨巋踈蓕殩锸儺颸靑粞涪氺瘍衺恬诀斅拾祕玹題煻品旯錳龂幘猀簎兽达莓鴹姅踲譲湱刃昛誝囨鶻嘌悃騴飺驇\",\"programmer\":\"我是老段,我是测试\",\"publish_app\":\"我是老段,我是测试\",\"desc\":\"老段的测开平台自动化测试用例\",\"interfaces\":0,\"testsuits\":0,\"testcases\":0,\"configures\":0},{\"id\":29,\"create_time\":\"2020-08-18 09:07:15\",\"name\":\"鷓鑋玦蕂炲発紏輺命皈聇萅嗀欐秷獪姡湰疩图矱鳶黦籺稷榪鸚亁釾湾\",\"leader\":\"我是老段,我是测试\",\"tester\":\"我是老段,我是测试\",\"programmer\":\"聰砯駳僐暎饲璹鞚彦嫥礭択熲燵簲柔榸啈飿冚訯鱶羿鸄駶闔鹥驤課霆唅蠏涝埙鰜鴿翙穦蓒粶詌蟌垞缋黐袽貾馵襦喙\",\"publish_app\":\"我是老段,我是测试\",\"desc\":\"老段的测开平台自动化测试用例\",\"interfaces\":0,\"testsuits\":0,\"testcases\":0,\"configures\":0},{\"id\":30,\"create_time\":\"2020-08-18 09:07:15\",\"name\":\"顭統描藬鰸笮劢临髮绀逅倚芹匸诡箣鬱嶐蜔固靾飞帜豈傒憺饟堖崈扑\",\"leader\":\"我是老段,我是测试\",\"tester\":\"我是老段,我是测试\",\"programmer\":\"我是老段,我是测试\",\"publish_app\":\"呆翰櫧靂腤罼险扮蝧儝蔦暥蜒峗鋂梅備茱扛粻忒蒁棹钟奘謽陗宁肪揳鈊矀叚圻犚聱疘媬媎悛晏獛裗勀姽輇碔蕭髃楔僑漊擕橴隠胘拘頳县疂薠狰多蘗餋湀瘩嗏鄹囫妽箖傐諔絹寔壄櫶奇蚼磷慣攗甲蘁繇缞鲜啲暟丞蕲亀趻赁摱诋鼕魹錣\",\"desc\":\"老段的测开平台自动化测试用例\",\"interfaces\":0,\"testsuits\":0,\"testcases\":0,\"configures\":0}],\"total_pages\":13,\"current_page_num\":3}"},{"name":"expectResult","value":"{\"$.current_page_num\": 3}"}]}],"parameters":[{"name":"sheetIndex","value":"10"},{"name":"arg0","value":"CaseInfo{id=4, name='projects', url='http://api.keyou.site:8000/projects/?page=3&size=10', method='get', params='null', contentType='json', expectResult='{\"$.current_page_num\": 3}', sql='null'}"}]}