{"uuid":"963c3859-ccd9-45d7-8944-d57925235615","historyId":"ffe7935d18e13cd169825d3d41da972","fullName":"com.lemon.cases.KeyouProjects.test","labels":[{"name":"package","value":"com.lemon.cases.KeyouProjects"},{"name":"testClass","value":"com.lemon.cases.KeyouProjects"},{"name":"testMethod","value":"test"},{"name":"parentSuite","value":"xxx项目"},{"name":"suite","value":"keyou-项目列表"},{"name":"subSuite","value":"com.lemon.cases.KeyouProjects"},{"name":"host","value":"DESKTOP-74HS2VL"},{"name":"thread","value":"24124@DESKTOP-74HS2VL.main(1)"}],"links":[],"name":"keyou项目列表description属性","status":"passed","statusDetails":{"known":false,"muted":false,"flaky":false},"stage":"finished","description":"description 注解","start":1597763835021,"stop":1597763835122,"steps":[{"name":"call方法","status":"passed","stage":"finished","start":1597763835021,"stop":1597763835121,"parameters":[{"name":"method","value":"get"},{"name":"contentType","value":"json"},{"name":"url","value":"http://api.keyou.site:8000/projects/?page=2&size=1"},{"name":"params","value":"null"},{"name":"headers","value":"{Authorization=JWT eyJ0eXAiOiJKV1QiLCJhbGciOiJIUzI1NiJ9.eyJ1c2VyX2lkIjo2MSwidXNlcm5hbWUiOiI0NTY3ODkiLCJleHAiOjE1OTc4NTAyNzMsImVtYWlsIjoiMTQwMjZAcXEuY29tIn0.HrMAO8Fk99Zzus_xegocb6CAGMdBZX-eyowH4KSVxP4, X-Lemonban-Media-Type=lemonban.v2, Content-Type=application/json}"}]},{"name":"printResponse","status":"passed","stage":"finished","start":1597763835121,"stop":1597763835121,"parameters":[{"name":"response","value":"HttpResponseProxy{HTTP/1.1 200 OK [Server: nginx/1.16.1, Date: Tue, 18 Aug 2020 15:17:54 GMT, Content-Type: application/json, Content-Length: 433, Connection: keep-alive, Vary: Accept, Origin, Allow: GET, POST, HEAD, OPTIONS, X-Frame-Options: SAMEORIGIN] ResponseEntityProxy{[Content-Type: application/json,Content-Length: 433,Chunked: false]}}"}]},{"name":"assertResponse","status":"passed","stage":"finished","start":1597763835121,"stop":1597763835122,"parameters":[{"name":"body","value":"{\"count\":123,\"next\":\"http://api.keyou.site:8000/projects/?page=3&size=1\",\"previous\":\"http://api.keyou.site:8000/projects/?size=1\",\"results\":[{\"id\":2,\"create_time\":\"2019-11-06 14:22:54\",\"name\":\"前程贷P2P金融项目\",\"leader\":\"可优\",\"tester\":\"小可可\",\"programmer\":\"小优优\",\"publish_app\":\"前程贷P2P金融应用\",\"desc\":\"\",\"interfaces\":3,\"testsuits\":1,\"testcases\":1,\"configures\":1}],\"total_pages\":123,\"current_page_num\":2}"},{"name":"expectResult","value":"{\"$.current_page_num\": 2}"}]}],"parameters":[{"name":"sheetIndex","value":"10"},{"name":"arg0","value":"CaseInfo{id=2, name='projects', url='http://api.keyou.site:8000/projects/?page=2&size=1', method='get', params='null', contentType='json', expectResult='{\"$.current_page_num\": 2}', sql='null'}"}]}