{"uuid":"a6dcfd81-d29e-4765-b708-65df73c87c22","historyId":"76878955cea7f0f61cf2564281426624","fullName":"com.lemon.cases.KeyouProjects.test","labels":[{"name":"package","value":"com.lemon.cases.KeyouProjects"},{"name":"testClass","value":"com.lemon.cases.KeyouProjects"},{"name":"testMethod","value":"test"},{"name":"parentSuite","value":"xxx项目"},{"name":"suite","value":"keyou-项目列表"},{"name":"subSuite","value":"com.lemon.cases.KeyouProjects"},{"name":"host","value":"DESKTOP-74HS2VL"},{"name":"thread","value":"24124@DESKTOP-74HS2VL.main(1)"}],"links":[],"name":"keyou项目列表description属性","status":"passed","statusDetails":{"known":false,"muted":false,"flaky":false},"stage":"finished","description":"description 注解","start":1597763834913,"stop":1597763835014,"steps":[{"name":"call方法","status":"passed","stage":"finished","start":1597763834913,"stop":1597763835013,"parameters":[{"name":"method","value":"get"},{"name":"contentType","value":"json"},{"name":"url","value":"http://api.keyou.site:8000/projects/?page=1&size=2"},{"name":"params","value":"null"},{"name":"headers","value":"{Authorization=JWT eyJ0eXAiOiJKV1QiLCJhbGciOiJIUzI1NiJ9.eyJ1c2VyX2lkIjo2MSwidXNlcm5hbWUiOiI0NTY3ODkiLCJleHAiOjE1OTc4NTAyNzMsImVtYWlsIjoiMTQwMjZAcXEuY29tIn0.HrMAO8Fk99Zzus_xegocb6CAGMdBZX-eyowH4KSVxP4, X-Lemonban-Media-Type=lemonban.v2, Content-Type=application/json}"}]},{"name":"printResponse","status":"passed","stage":"finished","start":1597763835014,"stop":1597763835014,"parameters":[{"name":"response","value":"HttpResponseProxy{HTTP/1.1 200 OK [Server: nginx/1.16.1, Date: Tue, 18 Aug 2020 15:17:53 GMT, Content-Type: application/json, Content-Length: 692, Connection: keep-alive, Vary: Accept, Origin, Allow: GET, POST, HEAD, OPTIONS, X-Frame-Options: SAMEORIGIN] ResponseEntityProxy{[Content-Type: application/json,Content-Length: 692,Chunked: false]}}"}]},{"name":"assertResponse","status":"passed","stage":"finished","start":1597763835014,"stop":1597763835014,"parameters":[{"name":"body","value":"{\"count\":123,\"next\":\"http://api.keyou.site:8000/projects/?page=2&size=2\",\"previous\":null,\"results\":[{\"id\":1,\"create_time\":\"2019-11-06 14:21:19\",\"name\":\"自动化测试平台项目\",\"leader\":\"可可\",\"tester\":\"优优\",\"programmer\":\"可优\",\"publish_app\":\"自动化测试平台应用\",\"desc\":\"该平台当前主要用于接口自动化测试.\",\"interfaces\":3,\"testsuits\":3,\"testcases\":5,\"configures\":1},{\"id\":2,\"create_time\":\"2019-11-06 14:22:54\",\"name\":\"前程贷P2P金融项目\",\"leader\":\"可优\",\"tester\":\"小可可\",\"programmer\":\"小优优\",\"publish_app\":\"前程贷P2P金融应用\",\"desc\":\"\",\"interfaces\":3,\"testsuits\":1,\"testcases\":1,\"configures\":1}],\"total_pages\":62,\"current_page_num\":1}"},{"name":"expectResult","value":"{\"$.current_page_num\": 1}"}]}],"parameters":[{"name":"sheetIndex","value":"10"},{"name":"arg0","value":"CaseInfo{id=1, name='projects', url='http://api.keyou.site:8000/projects/?page=${page}&size=${size}', method='get', params='null', contentType='json', expectResult='{\"$.current_page_num\": 1}', sql='null'}"}]}