{"uuid":"24ec4de5-4857-46d1-9a17-9c295ce018ec","historyId":"310153a6592f324d06ec75356ff79cb1","fullName":"com.lemon.cases.KeyouProjects.test","labels":[{"name":"package","value":"com.lemon.cases.KeyouProjects"},{"name":"testClass","value":"com.lemon.cases.KeyouProjects"},{"name":"testMethod","value":"test"},{"name":"parentSuite","value":"xxx项目"},{"name":"suite","value":"keyou-项目列表"},{"name":"subSuite","value":"com.lemon.cases.KeyouProjects"},{"name":"host","value":"DESKTOP-74HS2VL"},{"name":"thread","value":"7768@DESKTOP-74HS2VL.main(1)"}],"links":[],"name":"keyou项目列表description属性","status":"passed","statusDetails":{"known":false,"muted":false,"flaky":false},"stage":"finished","description":"description 注解","start":1594473979355,"stop":1594473979564,"steps":[{"name":"call方法","status":"passed","stage":"finished","start":1594473979356,"stop":1594473979563,"parameters":[{"name":"method","value":"get"},{"name":"contentType","value":"json"},{"name":"url","value":"http://api.keyou.site:8000/projects/?page=3&size=10"},{"name":"params","value":"{\"detail\":\"无效页面。\"}"},{"name":"headers","value":"{Authorization=JWT eyJ0eXAiOiJKV1QiLCJhbGciOiJIUzI1NiJ9.eyJ1c2VyX2lkIjo3NCwidXNlcm5hbWUiOiI0NTY3ODkiLCJleHAiOjE1OTQ1NjA0MDMsImVtYWlsIjoiMTQwMjI1OTY2QHFxLmNvbSJ9.L0-jErrgL0g7L2Qp9DaA9IIMDRE59X0skN8O1BVKmUU, X-Lemonban-Media-Type=lemonban.v2, Content-Type=application/json}"}]},{"name":"printResponse","status":"passed","stage":"finished","start":1594473979563,"stop":1594473979564,"parameters":[{"name":"response","value":"HttpResponseProxy{HTTP/1.1 200 OK [Server: nginx/1.16.1, Date: Sat, 11 Jul 2020 13:26:46 GMT, Content-Type: application/json, Content-Length: 3117, Connection: keep-alive, Vary: Accept, Origin, Allow: GET, POST, HEAD, OPTIONS, X-Frame-Options: SAMEORIGIN] ResponseEntityProxy{[Content-Type: application/json,Content-Length: 3117,Chunked: false]}}"}]},{"name":"assertResponse","status":"passed","stage":"finished","start":1594473979564,"stop":1594473979564,"parameters":[{"name":"body","value":"{\"count\":476,\"next\":\"http://api.keyou.site:8000/projects/?page=4&size=10\",\"previous\":\"http://api.keyou.site:8000/projects/?page=2&size=10\",\"results\":[{\"id\":21,\"create_time\":\"2020-07-11 09:30:21\",\"name\":\"jdnSDUtrJo0758239146msIPENdbrY0593746821MBRYZSqgGx8520169743fELeNKVSrY3142896705VyNvFrlDZu4629581370\",\"leader\":\"hcaIs547\",\"tester\":\"IUhaA172\",\"programmer\":\"BATns875\",\"publish_app\":\"XXX应用\",\"desc\":\"xxxx描述\",\"interfaces\":0,\"testsuits\":0,\"testcases\":0,\"configures\":0},{\"id\":22,\"create_time\":\"2020-07-11 09:30:21\",\"name\":\"jdnSDUtrJo0758239146msIPENdbrY0593746821MBRYZSqgGx8520169743fELeNKVSrY3142896705VyNvFrlDZu46295813701111dsadsadasdasdas\",\"leader\":\"hcaIs547\",\"tester\":\"IUhaA172\",\"programmer\":\"BATns875\",\"publish_app\":\"XXX应用\",\"desc\":\"xxxx描述\",\"interfaces\":0,\"testsuits\":0,\"testcases\":0,\"configures\":0},{\"id\":23,\"create_time\":\"2020-07-11 09:30:24\",\"name\":\"项目9\",\"leader\":\"sKrPz17085zYuHA29470QZkXu14932ZNXit13792tJkDr52087\",\"tester\":\"IUhaA172\",\"programmer\":\"BATns875\",\"publish_app\":\"XXX应用\",\"desc\":\"xxxx描述\",\"interfaces\":0,\"testsuits\":0,\"testcases\":0,\"configures\":0},{\"id\":24,\"create_time\":\"2020-07-11 09:30:25\",\"name\":\"项目10\",\"leader\":\"hcaIs547\",\"tester\":\"kyWZi86317vlfLI20683gYZbj39867CTgPV84269mBYbQ50167\",\"programmer\":\"BATns875\",\"publish_app\":\"XXX应用\",\"desc\":\"xxxx描述\",\"interfaces\":0,\"testsuits\":0,\"testcases\":0,\"configures\":0},{\"id\":25,\"create_time\":\"2020-07-11 09:30:27\",\"name\":\"项目11\",\"leader\":\"hcaIs547\",\"tester\":\"IUhaA172\",\"programmer\":\"OlNYk31826qjRfb42801tKjDF54180zAikv24619gUfih95473\",\"publish_app\":\"XXX应用\",\"desc\":\"xxxx描述\",\"interfaces\":0,\"testsuits\":0,\"testcases\":0,\"configures\":0},{\"id\":26,\"create_time\":\"2020-07-11 09:30:44\",\"name\":\"项目12\",\"leader\":\"AzTXP175\",\"tester\":\"1\",\"programmer\":\"fIXoS901\",\"publish_app\":\"XXX应用\",\"desc\":\"xxxx描述\",\"interfaces\":0,\"testsuits\":0,\"testcases\":0,\"configures\":0},{\"id\":27,\"create_time\":\"2020-07-11 09:30:45\",\"name\":\"rYthuAUaWI2147896350FvHDzfnVip0263451987lDEpgCnPsB7654018932ypFbqBLauR9275038416YTJcgynOCb6109475823\",\"leader\":\"AzTXP175\",\"tester\":\"zJqRy573\",\"programmer\":\"fIXoS901\",\"publish_app\":\"XXX应用\",\"desc\":\"xxxx描述\",\"interfaces\":0,\"testsuits\":0,\"testcases\":0,\"configures\":0},{\"id\":28,\"create_time\":\"2020-07-11 09:30:46\",\"name\":\"rYthuAUaWI2147896350FvHDzfnVip0263451987lDEpgCnPsB7654018932ypFbqBLauR9275038416YTJcgynOCb61094758231111dsadsadasdasdas\",\"leader\":\"AzTXP175\",\"tester\":\"zJqRy573\",\"programmer\":\"fIXoS901\",\"publish_app\":\"XXX应用\",\"desc\":\"xxxx描述\",\"interfaces\":0,\"testsuits\":0,\"testcases\":0,\"configures\":0},{\"id\":29,\"create_time\":\"2020-07-11 09:30:48\",\"name\":\"项目13\",\"leader\":\"ngBIR47362JiYfh64352ayePA60371puOPT72936FTVlO63209\",\"tester\":\"zJqRy573\",\"programmer\":\"fIXoS901\",\"publish_app\":\"XXX应用\",\"desc\":\"xxxx描述\",\"interfaces\":0,\"testsuits\":0,\"testcases\":0,\"configures\":0},{\"id\":30,\"create_time\":\"2020-07-11 09:30:49\",\"name\":\"项目14\",\"leader\":\"AzTXP175\",\"tester\":\"vODPh36072zkUiD13469pYaSx47561xWrac69048wzLFY36849\",\"programmer\":\"fIXoS901\",\"publish_app\":\"XXX应用\",\"desc\":\"xxxx描述\",\"interfaces\":0,\"testsuits\":0,\"testcases\":0,\"configures\":0}],\"total_pages\":48,\"current_page_num\":3}"},{"name":"expectResult","value":"null"}]}],"parameters":[{"name":"sheetIndex","value":"10"},{"name":"arg0","value":"CaseInfo{id=4, name='projects', url='http://api.keyou.site:8000/projects/?page=3&size=10', method='get', params='{\"detail\":\"无效页面。\"}', contentType='json', expectResult='null', sql='null'}"}]}