{"uuid":"603c96a0-6b37-4f8a-8078-3765748e2e95","historyId":"c3f3e92b89eac911c1fe3c433efe1910","fullName":"com.lemon.cases.KeyouProjects.test","labels":[{"name":"package","value":"com.lemon.cases.KeyouProjects"},{"name":"testClass","value":"com.lemon.cases.KeyouProjects"},{"name":"testMethod","value":"test"},{"name":"parentSuite","value":"xxx项目"},{"name":"suite","value":"keyou-项目列表"},{"name":"subSuite","value":"com.lemon.cases.KeyouProjects"},{"name":"host","value":"DESKTOP-74HS2VL"},{"name":"thread","value":"7768@DESKTOP-74HS2VL.main(1)"}],"links":[],"name":"keyou项目列表description属性","status":"passed","statusDetails":{"known":false,"muted":false,"flaky":false},"stage":"finished","description":"description 注解","start":1594473978746,"stop":1594473978955,"steps":[{"name":"call方法","status":"passed","stage":"finished","start":1594473978746,"stop":1594473978950,"parameters":[{"name":"method","value":"get"},{"name":"contentType","value":"json"},{"name":"url","value":"http://api.keyou.site:8000/projects/?page=1&size=2"},{"name":"params","value":"{\"count\":2,\"next\":null,\"previous\":null,\"results\":[{\"id\":1,\"name\":\"登录接口配置_自动化测试平台项目\",\"interface\":{\"name\":\"登录接口_自动化测试平台项目\",\"project\":\"自动化测试平台项目\"},\"author\":\"柠檬小姐姐\"},{\"id\":2,\"name\":\"查询项目列表配置_前程贷项目\",\"interface\":{\"name\":\"查看项目列表接口_前程贷P2P金融项目\",\"project\":\"前程贷P2P金融项目\"},\"author\":\"柠檬小姐姐\"}],\"total_pages\":1,\"current_page_num\":1}"},{"name":"headers","value":"{Authorization=JWT eyJ0eXAiOiJKV1QiLCJhbGciOiJIUzI1NiJ9.eyJ1c2VyX2lkIjo3NCwidXNlcm5hbWUiOiI0NTY3ODkiLCJleHAiOjE1OTQ1NjA0MDMsImVtYWlsIjoiMTQwMjI1OTY2QHFxLmNvbSJ9.L0-jErrgL0g7L2Qp9DaA9IIMDRE59X0skN8O1BVKmUU, X-Lemonban-Media-Type=lemonban.v2, Content-Type=application/json}"}]},{"name":"printResponse","status":"passed","stage":"finished","start":1594473978950,"stop":1594473978952,"parameters":[{"name":"response","value":"HttpResponseProxy{HTTP/1.1 200 OK [Server: nginx/1.16.1, Date: Sat, 11 Jul 2020 13:26:45 GMT, Content-Type: application/json, Content-Length: 693, Connection: keep-alive, Vary: Accept, Origin, Allow: GET, POST, HEAD, OPTIONS, X-Frame-Options: SAMEORIGIN] ResponseEntityProxy{[Content-Type: application/json,Content-Length: 693,Chunked: false]}}"}]},{"name":"assertResponse","status":"passed","stage":"finished","start":1594473978952,"stop":1594473978955,"parameters":[{"name":"body","value":"{\"count\":476,\"next\":\"http://api.keyou.site:8000/projects/?page=2&size=2\",\"previous\":null,\"results\":[{\"id\":1,\"create_time\":\"2019-11-06 14:21:19\",\"name\":\"自动化测试平台项目\",\"leader\":\"可可\",\"tester\":\"优优\",\"programmer\":\"可优\",\"publish_app\":\"自动化测试平台应用\",\"desc\":\"该平台当前主要用于接口自动化测试.\",\"interfaces\":3,\"testsuits\":1,\"testcases\":5,\"configures\":1},{\"id\":2,\"create_time\":\"2019-11-06 14:22:54\",\"name\":\"前程贷P2P金融项目\",\"leader\":\"可优\",\"tester\":\"小可可\",\"programmer\":\"小优优\",\"publish_app\":\"前程贷P2P金融应用\",\"desc\":\"\",\"interfaces\":3,\"testsuits\":1,\"testcases\":1,\"configures\":1}],\"total_pages\":238,\"current_page_num\":1}"},{"name":"expectResult","value":"null"}]}],"parameters":[{"name":"sheetIndex","value":"10"},{"name":"arg0","value":"CaseInfo{id=1, name='projects', url='http://api.keyou.site:8000/projects/?page=1&size=2', method='get', params='{\"count\":2,\"next\":null,\"previous\":null,\"results\":[{\"id\":1,\"name\":\"登录接口配置_自动化测试平台项目\",\"interface\":{\"name\":\"登录接口_自动化测试平台项目\",\"project\":\"自动化测试平台项目\"},\"author\":\"柠檬小姐姐\"},{\"id\":2,\"name\":\"查询项目列表配置_前程贷项目\",\"interface\":{\"name\":\"查看项目列表接口_前程贷P2P金融项目\",\"project\":\"前程贷P2P金融项目\"},\"author\":\"柠檬小姐姐\"}],\"total_pages\":1,\"current_page_num\":1}', contentType='json', expectResult='null', sql='null'}"}]}