{"uuid":"e984a362-b3cc-4292-ad4b-5914f1fced37","historyId":"76878955cea7f0f61cf2564281426624","fullName":"com.lemon.cases.KeyouProjects.test","labels":[{"name":"package","value":"com.lemon.cases.KeyouProjects"},{"name":"testClass","value":"com.lemon.cases.KeyouProjects"},{"name":"testMethod","value":"test"},{"name":"parentSuite","value":"xxx项目"},{"name":"suite","value":"keyou-项目列表"},{"name":"subSuite","value":"com.lemon.cases.KeyouProjects"},{"name":"host","value":"DESKTOP-74HS2VL"},{"name":"thread","value":"17264@DESKTOP-74HS2VL.main(1)"}],"links":[],"name":"keyou项目列表description属性","status":"passed","statusDetails":{"known":false,"muted":false,"flaky":false},"stage":"finished","description":"description 注解","start":1594521378860,"stop":1594521379082,"steps":[{"name":"call方法","status":"passed","stage":"finished","start":1594521378861,"stop":1594521379080,"parameters":[{"name":"method","value":"get"},{"name":"contentType","value":"json"},{"name":"url","value":"http://api.keyou.site:8000/projects/?page=1&size=2"},{"name":"params","value":"null"},{"name":"headers","value":"{Authorization=JWT eyJ0eXAiOiJKV1QiLCJhbGciOiJIUzI1NiJ9.eyJ1c2VyX2lkIjo1LCJ1c2VybmFtZSI6IjQ1Njc4OSIsImV4cCI6MTU5NDYwNzgwMywiZW1haWwiOiIxNDAyNkBxcS5jb20ifQ.k5ErxTtPlyGTru2mD5fz7_JTgqW1OtFJwV1kVD6uGMg, X-Lemonban-Media-Type=lemonban.v2, Content-Type=application/json}"}]},{"name":"printResponse","status":"passed","stage":"finished","start":1594521379081,"stop":1594521379082,"parameters":[{"name":"response","value":"HttpResponseProxy{HTTP/1.1 200 OK [Server: nginx/1.16.1, Date: Sun, 12 Jul 2020 02:36:45 GMT, Content-Type: application/json, Content-Length: 691, Connection: keep-alive, Vary: Accept, Origin, Allow: GET, POST, HEAD, OPTIONS, X-Frame-Options: SAMEORIGIN] ResponseEntityProxy{[Content-Type: application/json,Content-Length: 691,Chunked: false]}}"}]},{"name":"assertResponse","status":"passed","stage":"finished","start":1594521379082,"stop":1594521379082,"parameters":[{"name":"body","value":"{\"count\":20,\"next\":\"http://api.keyou.site:8000/projects/?page=2&size=2\",\"previous\":null,\"results\":[{\"id\":1,\"create_time\":\"2019-11-06 14:21:19\",\"name\":\"自动化测试平台项目\",\"leader\":\"可可\",\"tester\":\"优优\",\"programmer\":\"可优\",\"publish_app\":\"自动化测试平台应用\",\"desc\":\"该平台当前主要用于接口自动化测试.\",\"interfaces\":3,\"testsuits\":1,\"testcases\":5,\"configures\":1},{\"id\":2,\"create_time\":\"2019-11-06 14:22:54\",\"name\":\"前程贷P2P金融项目\",\"leader\":\"可优\",\"tester\":\"小可可\",\"programmer\":\"小优优\",\"publish_app\":\"前程贷P2P金融应用\",\"desc\":\"\",\"interfaces\":3,\"testsuits\":1,\"testcases\":1,\"configures\":1}],\"total_pages\":10,\"current_page_num\":1}"},{"name":"expectResult","value":"{\"$.current_page_num\": 1}"}]}],"parameters":[{"name":"sheetIndex","value":"10"},{"name":"arg0","value":"CaseInfo{id=1, name='projects', url='http://api.keyou.site:8000/projects/?page=${page}&size=${size}', method='get', params='null', contentType='json', expectResult='{\"$.current_page_num\": 1}', sql='null'}"}]}